PROJECT:=22851
CHARGE_TYPE_SET:=VOOC,SVOOC,PPS,PD,QC,DCP,SDP,CDP
CHARGE_SCENARIO_SET:=SCREENOFF
SCREENOFF_START
VOOC_THERMAL_CONTROL_START
360,3200,10
380,2200,10
VOOC_THERMAL_CONTROL_END
SVOOC_THERMAL_CONTROL_START
345,7000,10
380,6000,10
397,5000,10
408,4000,10
420,2000,10
SVOOC_THERMAL_CONTROL_END
PPS_THERMAL_CONTROL_START
350,6000,20
365,4000,10
387,3000,5
397,2000,5
PPS_THERMAL_CONTROL_END
UFCS_THERMAL_CONTROL_START
350,12000,5
365,10000,5
405,8000,5
420,6000,5
425,4000,0
430,2000,0
UFCS_THERMAL_CONTROL_END
PD_THERMAL_CONTROL_START
400,1500,10
410,1000,10
PD_THERMAL_CONTROL_END
QC_THERMAL_CONTROL_START
400,1500,10
410,1000,10
QC_THERMAL_CONTROL_END
DCP_THERMAL_CONTROL_START
390,1500,10
410,1000,10
DCP_THERMAL_CONTROL_END
SDP_THERMAL_CONTROL_START
400,500,10
SDP_THERMAL_CONTROL_END
CDP_THERMAL_CONTROL_START
410,1000,10
CDP_THERMAL_CONTROL_END
SCREENOFF_END

